{
  "info": {
    "author": "",
    "author_email": "Stefan Hagen <stefan@hagen.link>",
    "bugtrack_url": null,
    "classifiers": [
      "Development Status :: 3 - Alpha",
      "Intended Audience :: Developers",
      "License :: OSI Approved :: MIT License",
      "Programming Language :: Python :: 3.10",
      "Programming Language :: Python :: 3.11",
      "Programming Language :: Python :: 3.12",
      "Programming Language :: Python :: 3.9"
    ],
    "description": "# Hyperkuutio\n\nHypercube (Finnish: hyperkuutio) tool that scratches some itch.\n\n[License: MIT](https://git.sr.ht/~sthagen/hyperkuutio/tree/default/item/LICENSE) | \n[Country of origin: Switzerland](https://git.sr.ht/~sthagen/hyperkuutio/tree/default/item/COUNTRY-OF-ORIGIN) | \n[Export control classification number(ECCN): EAR99](https://git.sr.ht/~sthagen/hyperkuutio/tree/default/item/EXPORT-CONTROL-CLASSIFICATION-NUMBER)\n\nThird party dependencies are documented in the folder [third-party](docs/third-party/README.md).\n\n[![version](https://img.shields.io/pypi/v/hyperkuutio.svg?style=flat)](https://pypi.python.org/pypi/hyperkuutio/)\n[![downloads](https://static.pepy.tech/badge/hyperkuutio/month)](https://pepy.tech/project/hyperkuutio)\n[![wheel](https://img.shields.io/pypi/wheel/hyperkuutio.svg?style=flat)](https://pypi.python.org/pypi/hyperkuutio/)\n[![supported-versions](https://img.shields.io/pypi/pyversions/hyperkuutio.svg?style=flat)](https://pypi.python.org/pypi/hyperkuutio/)\n[![supported-implementations](https://img.shields.io/pypi/implementation/hyperkuutio.svg?style=flat)](https://pypi.python.org/pypi/hyperkuutio/)\n[![maintenance-status](https://img.shields.io/github/commit-activity/y/sthagen/hyperkuutio.svg?style=flat)](https://git.sr.ht/~sthagen/hyperkuutio/log)\n\n## Documentation\n\nUser and developer [documentation of hyperkuutio](https://codes.dilettant.life/docs/hyperkuutio).\n\n## Bug Tracker\n\nAny feature requests or bug reports shall go to the [todos of hyperkuutio](https://todo.sr.ht/~sthagen/hyperkuutio).\n\n## Primary Source repository\n\nThe main source of `hyperkuutio` is on a mountain in central Switzerland.\nWe use distributed version control (git).\nThere is no central hub.\nEvery clone can become a new source for the benefit of all.\nThe preferred public clones of `hyperkuutio` are:\n\n* [on codeberg](https://codeberg.org/sthagen/hyperkuutio) - a democratic community-driven, non-profit software development platform operated by Codeberg e.V.\n* [at sourcehut](https://git.sr.ht/~sthagen/hyperkuutio) - a collection of tools useful for software development.\n\n## Contributions\n\nPlease do not submit \"pull requests\" (I found no way to disable that \"feature\" on GitHub).\nIf you like to share small changes under the repositories license please kindly do so by sending a patchset.\nYou can either send such a patchset per email using [git send-email](https://git-send-email.io) or \nif you are a sourcehut user by selecting \"Prepare a patchset\" on the summary page of your fork at [sourcehut](https://git.sr.ht/).\n\n## Support\n\nPlease kindly submit issues at https://todo.sr.ht/~sthagen/hyperkuutio or write plain text email to ~sthagen/hyperkuutio@lists.sr.ht to submit patches and request support. Thanks.\n\n## Status\n\nExperimental.\n\n**Note**: The default branch is `default`.\n",
    "description_content_type": "text/markdown",
    "docs_url": null,
    "download_url": "",
    "downloads": {
      "last_day": -1,
      "last_month": -1,
      "last_week": -1
    },
    "dynamic": null,
    "home_page": "",
    "keywords": "developer-tools,validation,verification",
    "license": "",
    "license_expression": null,
    "license_files": null,
    "maintainer": "",
    "maintainer_email": "Stefan Hagen <stefan@hagen.link>",
    "name": "hyperkuutio",
    "package_url": "https://pypi.org/project/hyperkuutio/",
    "platform": null,
    "project_url": "https://pypi.org/project/hyperkuutio/",
    "project_urls": {
      "Bug-Tracker": "https://todo.sr.ht/~sthagen/hyperkuutio",
      "Documentation": "https://codes.dilettant.life/docs/hyperkuutio",
      "Homepage": "https://git.sr.ht/~sthagen/hyperkuutio",
      "Source-Code": "https://git.sr.ht/~sthagen/hyperkuutio",
      "Test-Coverage": "https://codes.dilettant.life/coverage/hyperkuutio"
    },
    "provides_extra": null,
    "release_url": "https://pypi.org/project/hyperkuutio/2023.10.29/",
    "requires_dist": [
      "openpyxl >=3.1.2",
      "pandas >=2.1.2",
      "pydantic >=2.4.2",
      "typer >=0.9.0",
      "black ; extra == 'dev'",
      "coverage ; extra == 'dev'",
      "hypothesis ; extra == 'dev'",
      "mypy ; extra == 'dev'",
      "pytest ; extra == 'dev'",
      "pytest-cov ; extra == 'dev'",
      "pytest-flake8 ; extra == 'dev'",
      "ruff ; extra == 'dev'"
    ],
    "requires_python": ">=3.9",
    "summary": "Hypercube (Finnish: hyperkuutio) tool that scratches some itch.",
    "version": "2023.10.29",
    "yanked": false,
    "yanked_reason": null
  },
  "last_serial": 20384206,
  "releases": {
    "2023.10.29": [
      {
        "comment_text": "",
        "digests": {
          "blake2b_256": "e1bea83bef6475d6756eed54e7c8ea330649ad2c0a95425a864bf0b7a73095c6",
          "md5": "9706848c6f3b98833e34d86630ece542",
          "sha256": "5022f08b526e397ccf9dd929ed652207fa81824d21e33b95aeecd2489e0b4a41"
        },
        "downloads": -1,
        "filename": "hyperkuutio-2023.10.29-py3-none-any.whl",
        "has_sig": false,
        "md5_digest": "9706848c6f3b98833e34d86630ece542",
        "packagetype": "bdist_wheel",
        "python_version": "py3",
        "requires_python": ">=3.9",
        "size": 4908,
        "upload_time": "2023-10-29T13:33:06",
        "upload_time_iso_8601": "2023-10-29T13:33:06.386629Z",
        "url": "https://files.pythonhosted.org/packages/e1/be/a83bef6475d6756eed54e7c8ea330649ad2c0a95425a864bf0b7a73095c6/hyperkuutio-2023.10.29-py3-none-any.whl",
        "yanked": false,
        "yanked_reason": null
      },
      {
        "comment_text": "",
        "digests": {
          "blake2b_256": "4bc6280fb2a7f6bbb1c6a3922543604074576cbcd4a59780c02819f2cb3fcb11",
          "md5": "ac245c7017525aaf111623d104c569c5",
          "sha256": "fe228a39a93f14ad6a4660d6d0da96e8efa4f84a5c5308339523dba0259c0f2a"
        },
        "downloads": -1,
        "filename": "hyperkuutio-2023.10.29.tar.gz",
        "has_sig": false,
        "md5_digest": "ac245c7017525aaf111623d104c569c5",
        "packagetype": "sdist",
        "python_version": "source",
        "requires_python": ">=3.9",
        "size": 5078,
        "upload_time": "2023-10-29T13:33:08",
        "upload_time_iso_8601": "2023-10-29T13:33:08.145788Z",
        "url": "https://files.pythonhosted.org/packages/4b/c6/280fb2a7f6bbb1c6a3922543604074576cbcd4a59780c02819f2cb3fcb11/hyperkuutio-2023.10.29.tar.gz",
        "yanked": false,
        "yanked_reason": null
      }
    ]
  },
  "urls": [
    {
      "comment_text": "",
      "digests": {
        "blake2b_256": "e1bea83bef6475d6756eed54e7c8ea330649ad2c0a95425a864bf0b7a73095c6",
        "md5": "9706848c6f3b98833e34d86630ece542",
        "sha256": "5022f08b526e397ccf9dd929ed652207fa81824d21e33b95aeecd2489e0b4a41"
      },
      "downloads": -1,
      "filename": "hyperkuutio-2023.10.29-py3-none-any.whl",
      "has_sig": false,
      "md5_digest": "9706848c6f3b98833e34d86630ece542",
      "packagetype": "bdist_wheel",
      "python_version": "py3",
      "requires_python": ">=3.9",
      "size": 4908,
      "upload_time": "2023-10-29T13:33:06",
      "upload_time_iso_8601": "2023-10-29T13:33:06.386629Z",
      "url": "https://files.pythonhosted.org/packages/e1/be/a83bef6475d6756eed54e7c8ea330649ad2c0a95425a864bf0b7a73095c6/hyperkuutio-2023.10.29-py3-none-any.whl",
      "yanked": false,
      "yanked_reason": null
    },
    {
      "comment_text": "",
      "digests": {
        "blake2b_256": "4bc6280fb2a7f6bbb1c6a3922543604074576cbcd4a59780c02819f2cb3fcb11",
        "md5": "ac245c7017525aaf111623d104c569c5",
        "sha256": "fe228a39a93f14ad6a4660d6d0da96e8efa4f84a5c5308339523dba0259c0f2a"
      },
      "downloads": -1,
      "filename": "hyperkuutio-2023.10.29.tar.gz",
      "has_sig": false,
      "md5_digest": "ac245c7017525aaf111623d104c569c5",
      "packagetype": "sdist",
      "python_version": "source",
      "requires_python": ">=3.9",
      "size": 5078,
      "upload_time": "2023-10-29T13:33:08",
      "upload_time_iso_8601": "2023-10-29T13:33:08.145788Z",
      "url": "https://files.pythonhosted.org/packages/4b/c6/280fb2a7f6bbb1c6a3922543604074576cbcd4a59780c02819f2cb3fcb11/hyperkuutio-2023.10.29.tar.gz",
      "yanked": false,
      "yanked_reason": null
    }
  ],
  "vulnerabilities": []
}